{
  "formatVersion": 1,
  "database": {
    "version": 3,
    "identityHash": "8f69b40d38ad499a20f89d475c661c0b",
    "entities": [
      {
        "tableName": "Aircraft",
        "createSql": "CREATE TABLE IF NOT EXISTS `${TABLE_NAME}` (`id` INTEGER PRIMARY KEY AUTOINCREMENT NOT NULL, `tailNumber` TEXT NOT NULL)",
        "fields": [
          {
            "fieldPath": "id",
            "columnName": "id",
            "affinity": "INTEGER",
            "notNull": true
          },
          {
            "fieldPath": "tailNumber",
            "columnName": "tailNumber",
            "affinity": "TEXT",
            "notNull": true
          }
        ],
        "primaryKey": {
          "columnNames": [
            "id"
          ],
          "autoGenerate": true
        },
        "indices": [
          {
            "name": "index_Aircraft_id",
            "unique": false,
            "columnNames": [
              "id"
            ],
            "createSql": "CREATE  INDEX `index_Aircraft_id` ON `${TABLE_NAME}` (`id`)"
          }
        ],
        "foreignKeys": []
      },
      {
        "tableName": "Checklist",
        "createSql": "CREATE TABLE IF NOT EXISTS `${TABLE_NAME}` (`id` INTEGER PRIMARY KEY AUTOINCREMENT NOT NULL, `type` TEXT NOT NULL, `name` TEXT NOT NULL, `aircraft_id` INTEGER NOT NULL, `order_number` INTEGER NOT NULL, FOREIGN KEY(`aircraft_id`) REFERENCES `Aircraft`(`id`) ON UPDATE NO ACTION ON DELETE NO ACTION )",
        "fields": [
          {
            "fieldPath": "id",
            "columnName": "id",
            "affinity": "INTEGER",
            "notNull": true
          },
          {
            "fieldPath": "type",
            "columnName": "type",
            "affinity": "TEXT",
            "notNull": true
          },
          {
            "fieldPath": "name",
            "columnName": "name",
            "affinity": "TEXT",
            "notNull": true
          },
          {
            "fieldPath": "aircraftId",
            "columnName": "aircraft_id",
            "affinity": "INTEGER",
            "notNull": true
          },
          {
            "fieldPath": "orderNumber",
            "columnName": "order_number",
            "affinity": "INTEGER",
            "notNull": true
          }
        ],
        "primaryKey": {
          "columnNames": [
            "id"
          ],
          "autoGenerate": true
        },
        "indices": [
          {
            "name": "index_Checklist_id",
            "unique": false,
            "columnNames": [
              "id"
            ],
            "createSql": "CREATE  INDEX `index_Checklist_id` ON `${TABLE_NAME}` (`id`)"
          },
          {
            "name": "index_Checklist_aircraft_id",
            "unique": false,
            "columnNames": [
              "aircraft_id"
            ],
            "createSql": "CREATE  INDEX `index_Checklist_aircraft_id` ON `${TABLE_NAME}` (`aircraft_id`)"
          }
        ],
        "foreignKeys": [
          {
            "table": "Aircraft",
            "onDelete": "NO ACTION",
            "onUpdate": "NO ACTION",
            "columns": [
              "aircraft_id"
            ],
            "referencedColumns": [
              "id"
            ]
          }
        ]
      },
      {
        "tableName": "ChecklistItem",
        "createSql": "CREATE TABLE IF NOT EXISTS `${TABLE_NAME}` (`id` INTEGER PRIMARY KEY AUTOINCREMENT NOT NULL, `checklist_id` INTEGER NOT NULL, `name` TEXT NOT NULL, `action` TEXT NOT NULL, `isChecked` INTEGER NOT NULL, `type` TEXT NOT NULL, FOREIGN KEY(`checklist_id`) REFERENCES `Checklist`(`id`) ON UPDATE NO ACTION ON DELETE NO ACTION )",
        "fields": [
          {
            "fieldPath": "id",
            "columnName": "id",
            "affinity": "INTEGER",
            "notNull": true
          },
          {
            "fieldPath": "checkListId",
            "columnName": "checklist_id",
            "affinity": "INTEGER",
            "notNull": true
          },
          {
            "fieldPath": "name",
            "columnName": "name",
            "affinity": "TEXT",
            "notNull": true
          },
          {
            "fieldPath": "action",
            "columnName": "action",
            "affinity": "TEXT",
            "notNull": true
          },
          {
            "fieldPath": "isChecked",
            "columnName": "isChecked",
            "affinity": "INTEGER",
            "notNull": true
          },
          {
            "fieldPath": "type",
            "columnName": "type",
            "affinity": "TEXT",
            "notNull": true
          }
        ],
        "primaryKey": {
          "columnNames": [
            "id"
          ],
          "autoGenerate": true
        },
        "indices": [
          {
            "name": "index_ChecklistItem_id",
            "unique": false,
            "columnNames": [
              "id"
            ],
            "createSql": "CREATE  INDEX `index_ChecklistItem_id` ON `${TABLE_NAME}` (`id`)"
          },
          {
            "name": "index_ChecklistItem_checklist_id",
            "unique": false,
            "columnNames": [
              "checklist_id"
            ],
            "createSql": "CREATE  INDEX `index_ChecklistItem_checklist_id` ON `${TABLE_NAME}` (`checklist_id`)"
          }
        ],
        "foreignKeys": [
          {
            "table": "Checklist",
            "onDelete": "NO ACTION",
            "onUpdate": "NO ACTION",
            "columns": [
              "checklist_id"
            ],
            "referencedColumns": [
              "id"
            ]
          }
        ]
      }
    ],
    "setupQueries": [
      "CREATE TABLE IF NOT EXISTS room_master_table (id INTEGER PRIMARY KEY,identity_hash TEXT)",
      "INSERT OR REPLACE INTO room_master_table (id,identity_hash) VALUES(42, \"8f69b40d38ad499a20f89d475c661c0b\")"
    ]
  }
}